%YAML 1.1
%TAG !u! tag:unity3d.com,2011:
--- !u!1 &5959379764603991925
GameObject:
  m_ObjectHideFlags: 0
  m_CorrespondingSourceObject: {fileID: 0}
  m_PrefabInstance: {fileID: 0}
  m_PrefabAsset: {fileID: 0}
  serializedVersion: 6
  m_Component:
  - component: {fileID: 7271239215441626470}
  - component: {fileID: 1852007720665153360}
  - component: {fileID: 5372563865685787561}
  - component: {fileID: 2419019332472303201}
  - component: {fileID: 2419019332472303230}
  - component: {fileID: 134395219043299373}
  m_Layer: 0
  m_Name: RedBloodCell
  m_TagString: Untagged
  m_Icon: {fileID: 0}
  m_NavMeshLayer: 0
  m_StaticEditorFlags: 0
  m_IsActive: 1
--- !u!4 &7271239215441626470
Transform:
  m_ObjectHideFlags: 0
  m_CorrespondingSourceObject: {fileID: 0}
  m_PrefabInstance: {fileID: 0}
  m_PrefabAsset: {fileID: 0}
  m_GameObject: {fileID: 5959379764603991925}
  m_LocalRotation: {x: 0, y: -0, z: -0, w: 1}
  m_LocalPosition: {x: -0, y: 0, z: 2.885}
  m_LocalScale: {x: 1, y: 1, z: 1}
  m_Children: []
  m_Father: {fileID: 0}
  m_RootOrder: 0
  m_LocalEulerAnglesHint: {x: 0, y: 0, z: 0}
--- !u!33 &1852007720665153360
MeshFilter:
  m_ObjectHideFlags: 0
  m_CorrespondingSourceObject: {fileID: 0}
  m_PrefabInstance: {fileID: 0}
  m_PrefabAsset: {fileID: 0}
  m_GameObject: {fileID: 5959379764603991925}
  m_Mesh: {fileID: 2540817853737639666, guid: 409036ed54dc34a408d9b88fa2bbf991, type: 3}
--- !u!23 &5372563865685787561
MeshRenderer:
  m_ObjectHideFlags: 0
  m_CorrespondingSourceObject: {fileID: 0}
  m_PrefabInstance: {fileID: 0}
  m_PrefabAsset: {fileID: 0}
  m_GameObject: {fileID: 5959379764603991925}
  m_Enabled: 1
  m_CastShadows: 1
  m_ReceiveShadows: 1
  m_DynamicOccludee: 1
  m_MotionVectors: 1
  m_LightProbeUsage: 1
  m_ReflectionProbeUsage: 1
  m_RayTracingMode: 2
  m_RenderingLayerMask: 1
  m_RendererPriority: 0
  m_Materials:
  - {fileID: 2100000, guid: c15668b1f2cc7f942bc98c93273ea889, type: 2}
  m_StaticBatchInfo:
    firstSubMesh: 0
    subMeshCount: 0
  m_StaticBatchRoot: {fileID: 0}
  m_ProbeAnchor: {fileID: 0}
  m_LightProbeVolumeOverride: {fileID: 0}
  m_ScaleInLightmap: 1
  m_ReceiveGI: 1
  m_PreserveUVs: 0
  m_IgnoreNormalsForChartDetection: 0
  m_ImportantGI: 0
  m_StitchLightmapSeams: 1
  m_SelectedEditorRenderState: 3
  m_MinimumChartSize: 4
  m_AutoUVMaxDistance: 0.5
  m_AutoUVMaxAngle: 89
  m_LightmapParameters: {fileID: 0}
  m_SortingLayerID: 0
  m_SortingLayer: 0
  m_SortingOrder: 0
--- !u!114 &2419019332472303201
MonoBehaviour:
  m_ObjectHideFlags: 0
  m_CorrespondingSourceObject: {fileID: 0}
  m_PrefabInstance: {fileID: 0}
  m_PrefabAsset: {fileID: 0}
  m_GameObject: {fileID: 5959379764603991925}
  m_Enabled: 1
  m_EditorHideFlags: 0
  m_Script: {fileID: 11500000, guid: b275e5f92732148048d7b77e264ac30e, type: 3}
  m_Name: 
  m_EditorClassIdentifier: 
  m_ShapeType: 0
  m_PrimitiveCenter:
    x: 0.0000054240227
    y: -0.0025196224
    z: -0.0000030398369
  m_PrimitiveSize:
    x: 1.2000108
    y: 0.35873643
    z: 1.2000053
  m_PrimitiveOrientation:
    Value:
      x: -0
      y: 0
      z: 0
    RotationOrder: 4
  m_Capsule:
    Height: 1.2000108
    Radius: 0.60000265
    Axis: 0
  m_Cylinder:
    Height: 0.35873643
    Radius: 0.6000054
    Axis: 1
  m_CylinderSideCount: 20
  m_SphereRadius: 0.6000054
  m_MinimumSkinnedVertexWeight: 0.1
  m_ConvexHullGenerationParameters:
    m_SimplificationTolerance: 0.018000161
    m_BevelRadius: 0.05
    m_MinimumAngle: 2.5000002
  m_CustomMesh: {fileID: 0}
  m_ForceUnique: 0
  m_Material:
    m_SupportsTemplate: 1
    m_Template: {fileID: 0}
    m_CollisionResponse:
      m_Override: 0
      m_Value: 0
    m_Friction:
      m_Override: 0
      m_Value:
        Value: 0.5
        CombineMode: 0
    m_Restitution:
      m_Override: 0
      m_Value:
        Value: 0
        CombineMode: 2
    m_BelongsToCategories:
      m_Override: 0
      m_Value:
        Category00: 1
        Category01: 1
        Category02: 1
        Category03: 1
        Category04: 1
        Category05: 1
        Category06: 1
        Category07: 1
        Category08: 1
        Category09: 1
        Category10: 1
        Category11: 1
        Category12: 1
        Category13: 1
        Category14: 1
        Category15: 1
        Category16: 1
        Category17: 1
        Category18: 1
        Category19: 1
        Category20: 1
        Category21: 1
        Category22: 1
        Category23: 1
        Category24: 1
        Category25: 1
        Category26: 1
        Category27: 1
        Category28: 1
        Category29: 1
        Category30: 1
        Category31: 1
    m_CollidesWithCategories:
      m_Override: 0
      m_Value:
        Category00: 1
        Category01: 1
        Category02: 1
        Category03: 1
        Category04: 1
        Category05: 1
        Category06: 1
        Category07: 1
        Category08: 1
        Category09: 1
        Category10: 1
        Category11: 1
        Category12: 1
        Category13: 1
        Category14: 1
        Category15: 1
        Category16: 1
        Category17: 1
        Category18: 1
        Category19: 1
        Category20: 1
        Category21: 1
        Category22: 1
        Category23: 1
        Category24: 1
        Category25: 1
        Category26: 1
        Category27: 1
        Category28: 1
        Category29: 1
        Category30: 1
        Category31: 1
    m_CustomMaterialTags:
      m_Override: 0
      m_Value:
        Tag00: 0
        Tag01: 0
        Tag02: 0
        Tag03: 0
        Tag04: 0
        Tag05: 0
        Tag06: 0
        Tag07: 0
    m_SerializedVersion: 1
    m_BelongsTo_Deprecated:
      m_Override: 0
      m_Value: 
    m_CollidesWith_Deprecated:
      m_Override: 0
      m_Value: 
    m_CustomTags_Deprecated:
      m_Override: 0
      m_Value: 
    m_IsTrigger_Deprecated:
      m_Override: 0
      m_Value: 0
    m_RaisesCollisionEvents_Deprecated:
      m_Override: 0
      m_Value: 0
  m_SerializedVersion: 1
  m_ConvexRadius_Deprecated: -1
--- !u!114 &2419019332472303230
MonoBehaviour:
  m_ObjectHideFlags: 0
  m_CorrespondingSourceObject: {fileID: 0}
  m_PrefabInstance: {fileID: 0}
  m_PrefabAsset: {fileID: 0}
  m_GameObject: {fileID: 5959379764603991925}
  m_Enabled: 1
  m_EditorHideFlags: 0
  m_Script: {fileID: 11500000, guid: ccea9ea98e38942e0b0938c27ed1903e, type: 3}
  m_Name: 
  m_EditorClassIdentifier: 
  m_MotionType: 0
  m_Mass: 1
  m_LinearDamping: 0.01
  m_AngularDamping: 0.05
  m_InitialLinearVelocity:
    x: 0
    y: 0
    z: 0
  m_InitialAngularVelocity:
    x: 0
    y: 0
    z: 0
  m_GravityFactor: 0
  m_OverrideDefaultMassDistribution: 0
  m_CenterOfMass:
    x: 0
    y: 0
    z: 0
  m_Orientation:
    Value:
      x: 0
      y: 0
      z: 0
    RotationOrder: 4
  m_InertiaTensor:
    x: 0.4
    y: 0.4
    z: 0.4
  m_CustomTags:
    Tag00: 0
    Tag01: 0
    Tag02: 0
    Tag03: 0
    Tag04: 0
    Tag05: 0
    Tag06: 0
    Tag07: 0
--- !u!114 &134395219043299373
MonoBehaviour:
  m_ObjectHideFlags: 0
  m_CorrespondingSourceObject: {fileID: 0}
  m_PrefabInstance: {fileID: 0}
  m_PrefabAsset: {fileID: 0}
  m_GameObject: {fileID: 5959379764603991925}
  m_Enabled: 1
  m_EditorHideFlags: 0
  m_Script: {fileID: 11500000, guid: 407ff7e5ad1e1a0439f5d9023d7922ff, type: 3}
  m_Name: 
  m_EditorClassIdentifier: 
  speed: 0
